…
The highest number of clicked ads were recorded between 9th hour and the
lowest at the 10th hour

``` r
# Countries 
ads %>%
  dplyr::select(country, clicked_on_ad) %>%
  filter(clicked_on_ad == 1) %>%
  group_by(country) %>%
  summarise(n=n()) %>%
  arrange(desc(n))
```

    ## # A tibble: 215 x 2
    ##    country           n
    ##    <chr>         <int>
    ##  1 Australia         7
    ##  2 Ethiopia          7
    ##  3 Turkey            7
    ##  4 Liberia           6
    ##  5 Liechtenstein     6
    ##  6 South Africa      6
    ##  7 Afghanistan       5
    ##  8 France            5
    ##  9 Hungary           5
    ## 10 Mayotte           5
    ## # ... with 205 more rows

``` r
ads %>%
  dplyr::select(city, clicked_on_ad, country) %>%
  filter(clicked_on_ad == 1) %>%
  group_by(city) %>%
  summarise(n=n()) %>%
  arrange(desc(n))
```

    ## # A tibble: 490 x 2
    ##    city             n
    ##    <chr>        <int>
    ##  1 Lake David       2
    ##  2 Lake James       2
    ##  3 Lisamouth        2
    ##  4 Michelleside     2
    ##  5 Millerbury       2
    ##  6 Robertfurt       2
    ##  7 South Lisa       2
    ##  8 West Amanda      2
    ##  9 West Shannon     2
    ## 10 Williamsport     2
    ## # ... with 480 more rows
…
